0.000000 - s:a k:10 n:10
0.000007 - s:a k:10 n:100
0.000590 - s:a k:10 n:1000
0.052236 - s:a k:10 n:10000
5.159360 - s:a k:10 n:100000
0.000000 - s:a k:1000 n:10
0.000007 - s:a k:1000 n:100
0.000568 - s:a k:1000 n:1000
0.052523 - s:a k:1000 n:10000
5.169714 - s:a k:1000 n:100000
0.000000 - s:a k:100000 n:10
0.000007 - s:a k:100000 n:100
0.000562 - s:a k:100000 n:1000
0.053185 - s:a k:100000 n:10000
5.287958 - s:a k:100000 n:100000
0.000000 - s:a k:10000000 n:10
0.000007 - s:a k:10000000 n:100
0.000539 - s:a k:10000000 n:1000
0.055044 - s:a k:10000000 n:10000
5.260806 - s:a k:10000000 n:100000
0.000000 - s:d k:10 n:10
0.000012 - s:d k:10 n:100
0.000983 - s:d k:10 n:1000
0.092804 - s:d k:10 n:10000
9.426169 - s:d k:10 n:100000
0.000000 - s:d k:1000 n:10
0.000011 - s:d k:1000 n:100
0.001053 - s:d k:1000 n:1000
0.096892 - s:d k:1000 n:10000
9.678103 - s:d k:1000 n:100000
0.000000 - s:d k:100000 n:10
0.000011 - s:d k:100000 n:100
0.000946 - s:d k:100000 n:1000
0.096610 - s:d k:100000 n:10000
9.672734 - s:d k:100000 n:100000
0.000000 - s:d k:10000000 n:10
0.000011 - s:d k:10000000 n:100
0.000979 - s:d k:10000000 n:1000
0.097272 - s:d k:10000000 n:10000
9.671096 - s:d k:10000000 n:100000
0.000000 - s:u k:10 n:10
0.000012 - s:u k:10 n:100
0.000839 - s:u k:10 n:1000
0.123167 - s:u k:10 n:10000
14.981752 - s:u k:10 n:100000
0.000001 - s:u k:1000 n:10
0.000013 - s:u k:1000 n:100
0.000935 - s:u k:1000 n:1000
0.126999 - s:u k:1000 n:10000
15.224468 - s:u k:1000 n:100000
0.000001 - s:u k:100000 n:10
0.000014 - s:u k:100000 n:100
0.000928 - s:u k:100000 n:1000
0.127105 - s:u k:100000 n:10000
15.579978 - s:u k:100000 n:100000
0.000000 - s:u k:10000000 n:10
0.000012 - s:u k:10000000 n:100
0.000974 - s:u k:10000000 n:1000
0.126575 - s:u k:10000000 n:10000
15.225822 - s:u k:10000000 n:100000
