0.000001 - s:a k:10 n:10
0.000000 - s:a k:10 n:100
0.000001 - s:a k:10 n:1000
0.000011 - s:a k:10 n:10000
0.000086 - s:a k:10 n:100000
0.000000 - s:a k:1000 n:10
0.000001 - s:a k:1000 n:100
0.000002 - s:a k:1000 n:1000
0.000008 - s:a k:1000 n:10000
0.000086 - s:a k:1000 n:100000
0.000000 - s:a k:100000 n:10
0.000000 - s:a k:100000 n:100
0.000001 - s:a k:100000 n:1000
0.000009 - s:a k:100000 n:10000
0.000087 - s:a k:100000 n:100000
0.000000 - s:a k:10000000 n:10
0.000001 - s:a k:10000000 n:100
0.000001 - s:a k:10000000 n:1000
0.000013 - s:a k:10000000 n:10000
0.000087 - s:a k:10000000 n:100000
0.000001 - s:d k:10 n:10
0.000003 - s:d k:10 n:100
0.000267 - s:d k:10 n:1000
0.023886 - s:d k:10 n:10000
2.348456 - s:d k:10 n:100000
0.000001 - s:d k:1000 n:10
0.000003 - s:d k:1000 n:100
0.000292 - s:d k:1000 n:1000
0.026124 - s:d k:1000 n:10000
2.649597 - s:d k:1000 n:100000
0.000001 - s:d k:100000 n:10
0.000003 - s:d k:100000 n:100
0.000282 - s:d k:100000 n:1000
0.028157 - s:d k:100000 n:10000
2.630077 - s:d k:100000 n:100000
0.000000 - s:d k:10000000 n:10
0.000003 - s:d k:10000000 n:100
0.000291 - s:d k:10000000 n:1000
0.027179 - s:d k:10000000 n:10000
2.598931 - s:d k:10000000 n:100000
0.000000 - s:u k:10 n:10
0.000002 - s:u k:10 n:100
0.000144 - s:u k:10 n:1000
0.012199 - s:u k:10 n:10000
1.178695 - s:u k:10 n:100000
0.000000 - s:u k:1000 n:10
0.000002 - s:u k:1000 n:100
0.000153 - s:u k:1000 n:1000
0.013633 - s:u k:1000 n:10000
1.293807 - s:u k:1000 n:100000
0.000000 - s:u k:100000 n:10
0.000004 - s:u k:100000 n:100
0.000165 - s:u k:100000 n:1000
0.013767 - s:u k:100000 n:10000
1.297936 - s:u k:100000 n:100000
0.000000 - s:u k:10000000 n:10
0.000002 - s:u k:10000000 n:100
0.000141 - s:u k:10000000 n:1000
0.013407 - s:u k:10000000 n:10000
1.294437 - s:u k:10000000 n:100000
